<svg width="38" height="38" viewBox="0 0 38 38" fill="none" xmlns="http://www.w3.org/2000/svg">
<path d="M6.33337 20.5833V30.0833C6.33337 31.8323 7.75114 33.25 9.50004 33.25H28.5C30.249 33.25 31.6667 31.8323 31.6667 30.0833V20.5833" stroke="white" stroke-width="3" stroke-linecap="round" stroke-linejoin="round"/>
<path d="M19 4.75V23.75M19 23.75L13.4584 18.2083M19 23.75L24.5417 18.2083" stroke="white" stroke-width="3" stroke-linecap="round" stroke-linejoin="round"/>
</svg>
