<svg width="35" height="35" viewBox="0 0 35 35" fill="none" xmlns="http://www.w3.org/2000/svg">
<g clip-path="url(#clip0_418_341)">
<path d="M30.625 9.84375H12.0312C11.7412 9.84375 11.463 9.72852 11.2579 9.5234C11.0527 9.31828 10.9375 9.04008 10.9375 8.75C10.9375 8.45992 11.0527 8.18172 11.2579 7.9766C11.463 7.77148 11.7412 7.65625 12.0312 7.65625H30.625C30.9151 7.65625 31.1933 7.77148 31.3984 7.9766C31.6035 8.18172 31.7188 8.45992 31.7188 8.75C31.7188 9.04008 31.6035 9.31828 31.3984 9.5234C31.1933 9.72852 30.9151 9.84375 30.625 9.84375Z" fill="white"/>
<path d="M7.65625 9.84375H4.375C4.08492 9.84375 3.80672 9.72852 3.6016 9.5234C3.39648 9.31828 3.28125 9.04008 3.28125 8.75C3.28125 8.45992 3.39648 8.18172 3.6016 7.9766C3.80672 7.77148 4.08492 7.65625 4.375 7.65625H7.65625C7.94633 7.65625 8.22453 7.77148 8.42965 7.9766C8.63477 8.18172 8.75 8.45992 8.75 8.75C8.75 9.04008 8.63477 9.31828 8.42965 9.5234C8.22453 9.72852 7.94633 9.84375 7.65625 9.84375Z" fill="white"/>
<path d="M22.9688 18.5938H4.375C4.08492 18.5938 3.80672 18.4785 3.6016 18.2734C3.39648 18.0683 3.28125 17.7901 3.28125 17.5C3.28125 17.2099 3.39648 16.9317 3.6016 16.7266C3.80672 16.5215 4.08492 16.4062 4.375 16.4062H22.9688C23.2588 16.4062 23.537 16.5215 23.7421 16.7266C23.9473 16.9317 24.0625 17.2099 24.0625 17.5C24.0625 17.7901 23.9473 18.0683 23.7421 18.2734C23.537 18.4785 23.2588 18.5938 22.9688 18.5938Z" fill="white"/>
<path d="M12.0312 27.3438H4.375C4.08492 27.3438 3.80672 27.2285 3.6016 27.0234C3.39648 26.8183 3.28125 26.5401 3.28125 26.25C3.28125 25.9599 3.39648 25.6817 3.6016 25.4766C3.80672 25.2715 4.08492 25.1562 4.375 25.1562H12.0312C12.3213 25.1562 12.5995 25.2715 12.8046 25.4766C13.0098 25.6817 13.125 25.9599 13.125 26.25C13.125 26.5401 13.0098 26.8183 12.8046 27.0234C12.5995 27.2285 12.3213 27.3438 12.0312 27.3438Z" fill="white"/>
<path d="M9.84375 12.0313C9.19478 12.0313 8.56039 11.8388 8.02079 11.4783C7.48119 11.1177 7.06062 10.6053 6.81227 10.0057C6.56392 9.40611 6.49894 8.74636 6.62555 8.10986C6.75216 7.47336 7.06467 6.8887 7.52356 6.42981C7.98245 5.97092 8.56711 5.65841 9.20361 5.5318C9.84011 5.40519 10.4999 5.47017 11.0994 5.71852C11.699 5.96687 12.2115 6.38744 12.572 6.92704C12.9326 7.46664 13.125 8.10103 13.125 8.75C13.125 9.62024 12.7793 10.4548 12.1639 11.0702C11.5486 11.6855 10.714 12.0313 9.84375 12.0313ZM9.84375 7.65625C9.62743 7.65625 9.41596 7.7204 9.2361 7.84058C9.05623 7.96076 8.91604 8.13158 8.83326 8.33144C8.75047 8.5313 8.72881 8.75121 8.77102 8.96338C8.81322 9.17555 8.91739 9.37044 9.07035 9.5234C9.22332 9.67636 9.4182 9.78053 9.63037 9.82274C9.84254 9.86494 10.0625 9.84328 10.2623 9.76049C10.4622 9.67771 10.633 9.53752 10.7532 9.35766C10.8734 9.17779 10.9375 8.96632 10.9375 8.75C10.9375 8.45992 10.8223 8.18172 10.6171 7.9766C10.412 7.77149 10.1338 7.65625 9.84375 7.65625Z" fill="white"/>
<path d="M25.1563 20.7813C24.5073 20.7813 23.8729 20.5888 23.3333 20.2283C22.7937 19.8677 22.3731 19.3553 22.1248 18.7557C21.8764 18.1561 21.8114 17.4964 21.938 16.8599C22.0647 16.2234 22.3772 15.6387 22.8361 15.1798C23.2949 14.7209 23.8796 14.4084 24.5161 14.2818C25.1526 14.1552 25.8124 14.2202 26.4119 14.4685C27.0115 14.7169 27.524 15.1374 27.8845 15.677C28.2451 16.2166 28.4375 16.851 28.4375 17.5C28.4375 18.3702 28.0918 19.2048 27.4764 19.8202C26.8611 20.4355 26.0265 20.7813 25.1563 20.7813ZM25.1563 16.4063C24.9399 16.4063 24.7285 16.4704 24.5486 16.5906C24.3687 16.7108 24.2285 16.8816 24.1458 17.0814C24.063 17.2813 24.0413 17.5012 24.0835 17.7134C24.1257 17.9255 24.2299 18.1204 24.3829 18.2734C24.5358 18.4264 24.7307 18.5305 24.9429 18.5727C25.155 18.6149 25.375 18.5933 25.5748 18.5105C25.7747 18.4277 25.9455 18.2875 26.0657 18.1077C26.1859 17.9278 26.25 17.7163 26.25 17.5C26.25 17.2099 26.1348 16.9317 25.9297 16.7266C25.7245 16.5215 25.4463 16.4063 25.1563 16.4063Z" fill="white"/>
<path d="M14.2188 29.5313C13.5698 29.5313 12.9354 29.3388 12.3958 28.9783C11.8562 28.6177 11.4356 28.1053 11.1873 27.5057C10.9389 26.9061 10.8739 26.2464 11.0005 25.6099C11.1272 24.9734 11.4397 24.3887 11.8986 23.9298C12.3574 23.4709 12.9421 23.1584 13.5786 23.0318C14.2151 22.9052 14.8749 22.9702 15.4744 23.2185C16.074 23.4669 16.5865 23.8874 16.947 24.427C17.3076 24.9666 17.5 25.601 17.5 26.25C17.5 27.1202 17.1543 27.9548 16.5389 28.5702C15.9236 29.1855 15.089 29.5313 14.2188 29.5313ZM14.2188 25.1563C14.0024 25.1563 13.791 25.2204 13.6111 25.3406C13.4312 25.4608 13.291 25.6316 13.2083 25.8314C13.1255 26.0313 13.1038 26.2512 13.146 26.4634C13.1882 26.6755 13.2924 26.8704 13.4454 27.0234C13.5983 27.1764 13.7932 27.2805 14.0054 27.3227C14.2175 27.3649 14.4375 27.3433 14.6373 27.2605C14.8372 27.1777 15.008 27.0375 15.1282 26.8577C15.2484 26.6778 15.3125 26.4663 15.3125 26.25C15.3125 25.9599 15.1973 25.6817 14.9921 25.4766C14.787 25.2715 14.5088 25.1563 14.2188 25.1563Z" fill="white"/>
<path d="M30.625 18.5938H27.3438C27.0537 18.5938 26.7755 18.4785 26.5704 18.2734C26.3652 18.0683 26.25 17.7901 26.25 17.5C26.25 17.2099 26.3652 16.9317 26.5704 16.7266C26.7755 16.5215 27.0537 16.4062 27.3438 16.4062H30.625C30.9151 16.4062 31.1933 16.5215 31.3984 16.7266C31.6035 16.9317 31.7188 17.2099 31.7188 17.5C31.7188 17.7901 31.6035 18.0683 31.3984 18.2734C31.1933 18.4785 30.9151 18.5938 30.625 18.5938Z" fill="white"/>
<path d="M30.625 27.3438H16.4062C16.1162 27.3438 15.838 27.2285 15.6329 27.0234C15.4277 26.8183 15.3125 26.5401 15.3125 26.25C15.3125 25.9599 15.4277 25.6817 15.6329 25.4766C15.838 25.2715 16.1162 25.1562 16.4062 25.1562H30.625C30.9151 25.1562 31.1933 25.2715 31.3984 25.4766C31.6035 25.6817 31.7188 25.9599 31.7188 26.25C31.7188 26.5401 31.6035 26.8183 31.3984 27.0234C31.1933 27.2285 30.9151 27.3438 30.625 27.3438Z" fill="white"/>
</g>
<defs>
<clipPath id="clip0_418_341">
<rect width="35" height="35" fill="white"/>
</clipPath>
</defs>
</svg>
