<svg width="22" height="22" viewBox="0 0 22 22" fill="none" xmlns="http://www.w3.org/2000/svg">
<path d="M19.6995 18.3001L18.6995 17.3001C18.2995 16.9001 17.6995 16.9001 17.2995 17.3001C16.8995 17.7001 16.8995 18.3001 17.2995 18.7001L18.2995 19.7001C18.4995 19.9001 18.7995 20.0001 18.9995 20.0001C19.1995 20.0001 19.4995 19.9001 19.6995 19.7001C20.0995 19.3001 20.0995 18.7001 19.6995 18.3001Z" fill="#959595"/>
<path d="M12.9997 21.0002C12.9997 21.6002 13.3997 22.0002 13.9997 22.0002C14.5997 22.0002 14.9997 21.6002 14.9997 21.0002V19.0002C14.9997 18.4002 14.5997 18.0002 13.9997 18.0002C13.3997 18.0002 12.9997 18.4002 12.9997 19.0002V21.0002Z" fill="#959595"/>
<path d="M20.9998 13.0001H18.9998C18.3998 13.0001 17.9998 13.4001 17.9998 14.0001C17.9998 14.6001 18.3998 15.0001 18.9998 15.0001H20.9998C21.5998 15.0001 21.9998 14.6001 21.9998 14.0001C21.9998 13.4001 21.5998 13.0001 20.9998 13.0001Z" fill="#959595"/>
<path d="M19.7004 7.3998C19.7004 5.9998 19.2004 4.7998 18.2004 3.7998C17.2004 2.7998 16.0004 2.2998 14.6004 2.2998C13.2004 2.2998 12.0004 2.7998 11.0004 3.7998L8.80037 5.9998C8.40037 6.3998 8.40037 6.9998 8.80037 7.3998C9.20037 7.7998 9.80037 7.7998 10.2004 7.3998L12.4004 5.1998C13.6004 3.9998 15.6004 3.9998 16.8004 5.1998C17.4004 5.7998 17.7004 6.5998 17.7004 7.3998C17.7004 8.1998 17.4004 8.9998 16.8004 9.5998L14.6004 11.7998C14.2004 12.1998 14.2004 12.7998 14.6004 13.1998C14.8004 13.3998 15.1004 13.4998 15.3004 13.4998C15.5004 13.4998 15.8004 13.3998 16.0004 13.1998L18.2004 10.9998C19.2004 9.9998 19.7004 8.7998 19.7004 7.3998Z" fill="#959595"/>
<path d="M2.30005 14.5998C2.30005 15.9998 2.80005 17.1998 3.80005 18.1998C4.80005 19.1998 6.00005 19.6998 7.40005 19.6998C8.80005 19.6998 10 19.1998 11 18.1998L13.2 15.9998C13.6 15.5998 13.6 14.9998 13.2 14.5998C12.8 14.1998 12.2 14.1998 11.8 14.5998L9.60005 16.7998C8.40005 17.9998 6.40005 17.9998 5.20005 16.7998C4.60005 16.1998 4.30005 15.3998 4.30005 14.5998C4.30005 13.7998 4.60005 12.9998 5.20005 12.3998L7.40005 10.1998C7.80005 9.79976 7.80005 9.19976 7.40005 8.79976C7.00005 8.39976 6.40005 8.39976 6.00005 8.79976L3.80005 10.9998C2.80005 11.9998 2.30005 13.1998 2.30005 14.5998Z" fill="#959595"/>
<path d="M4.69969 3.30012L3.69969 2.30012C3.29969 1.90012 2.69969 1.90012 2.29969 2.30012C1.89969 2.70012 1.89969 3.30012 2.29969 3.70012L3.2997 4.70012C3.4997 4.90012 3.69969 5.00012 3.99969 5.00012C4.29969 5.00012 4.49969 4.90012 4.69969 4.70012C5.09969 4.30012 5.09969 3.70012 4.69969 3.30012Z" fill="#959595"/>
<path d="M8.99976 3V1C8.99976 0.4 8.59976 0 7.99976 0C7.39976 0 6.99976 0.4 6.99976 1V3C6.99976 3.6 7.39976 4 7.99976 4C8.59976 4 8.99976 3.6 8.99976 3Z" fill="#959595"/>
<path d="M3 9.00024C3.6 9.00024 4 8.60024 4 8.00024C4 7.40024 3.6 7.00024 3 7.00024H1C0.4 7.00024 0 7.40024 0 8.00024C0 8.60024 0.4 9.00024 1 9.00024H3Z" fill="#959595"/>
</svg>
