<svg width="27" height="27" viewBox="0 0 27 27" fill="none" xmlns="http://www.w3.org/2000/svg">
<path d="M13.5 1.6875L2.53125 5.29875V10.125C2.53125 22.4522 13.1878 25.2619 13.2975 25.3125H13.5L13.7025 25.2619C13.8122 25.2619 24.4688 22.4269 24.4688 10.0744V5.29875L13.5 1.6875ZM22.7812 10.125C22.7812 20.3344 14.9259 23.1609 13.5 23.625C12.0741 23.1609 4.21875 20.3344 4.21875 10.125V6.51375L13.5 3.41719L22.7812 6.51375V10.125Z" fill="#959595"/>
<path d="M9.77906 12.6562L8.58093 13.8459L10.5131 15.7781C10.6701 15.936 10.8568 16.0613 11.0624 16.1468C11.2681 16.2322 11.4886 16.2761 11.7112 16.2759C12.1581 16.2741 12.5859 16.095 12.9009 15.7781L18.4191 10.2684L17.2209 9.07031L11.7112 14.5884L9.77906 12.6562Z" fill="#959595"/>
</svg>
