<svg width="20" height="21" viewBox="0 0 20 21" fill="none" xmlns="http://www.w3.org/2000/svg">
<path d="M19.869 10.7281C19.8698 10.0466 19.8118 9.3664 19.6956 8.69482H10.1998V12.546H15.6385C15.5273 13.1611 15.2917 13.7475 14.9461 14.2697C14.6005 14.792 14.1519 15.2393 13.6275 15.5848V18.0846H16.8734C18.774 16.3444 19.869 13.771 19.869 10.7281Z" fill="#4285F4"/>
<path d="M10.1998 20.5C12.9171 20.5 15.205 19.6139 16.8734 18.0862L13.6275 15.5864C12.7241 16.1947 11.5605 16.5419 10.1998 16.5419C7.5734 16.5419 5.3442 14.7836 4.54706 12.4143H1.20325V14.9906C2.04132 16.6467 3.32641 18.0389 4.91506 19.0118C6.5037 19.9847 8.33336 20.4999 10.1998 20.5Z" fill="#34A853"/>
<path d="M4.54701 12.414C4.12559 11.1724 4.12559 9.82793 4.54701 8.58639V6.01013H1.2032C0.498184 7.40333 0.131012 8.94096 0.131012 10.5002C0.131012 12.0594 0.498184 13.597 1.2032 14.9902L4.54701 12.414Z" fill="#FBBC04"/>
<path d="M10.1998 4.45879C11.6357 4.43549 13.0233 4.97429 14.0624 5.95872L16.9363 3.10469C15.114 1.40488 12.6998 0.471659 10.1998 0.500656C8.33336 0.500741 6.5037 1.01598 4.91506 1.98886C3.32641 2.96174 2.04132 4.35397 1.20325 6.0101L4.54706 8.58636C5.3442 6.21704 7.5734 4.45879 10.1998 4.45879Z" fill="#EA4335"/>
</svg>
