<svg width="126" height="23" viewBox="0 0 126 23" fill="none" xmlns="http://www.w3.org/2000/svg">
<path d="M3.97684 18C3.72084 18 3.51284 17.928 3.35284 17.784C3.20884 17.64 3.12084 17.464 3.08884 17.256L0.352844 1.872C0.336844 1.84 0.328844 1.808 0.328844 1.776C0.328844 1.744 0.328844 1.72 0.328844 1.704C0.328844 1.576 0.376844 1.464 0.472844 1.368C0.568844 1.256 0.688844 1.2 0.832844 1.2H3.35284C3.76884 1.2 4.00084 1.368 4.04884 1.704L5.84884 11.856L7.79284 5.544C7.84084 5.416 7.92084 5.28 8.03284 5.136C8.14484 4.992 8.32884 4.92 8.58484 4.92H10.0968C10.3528 4.92 10.5368 4.992 10.6488 5.136C10.7608 5.28 10.8328 5.416 10.8648 5.544L12.8328 11.832L14.6088 1.704C14.6568 1.368 14.8968 1.2 15.3288 1.2H17.8488C17.9928 1.2 18.1128 1.256 18.2088 1.368C18.3048 1.464 18.3528 1.576 18.3528 1.704C18.3528 1.72 18.3528 1.744 18.3528 1.776C18.3528 1.808 18.3448 1.84 18.3288 1.872L15.5928 17.256C15.5608 17.464 15.4648 17.64 15.3048 17.784C15.1608 17.928 14.9608 18 14.7048 18H12.7608C12.5048 18 12.3048 17.936 12.1608 17.808C12.0328 17.664 11.9448 17.52 11.8968 17.376L9.32884 9.936L6.78484 17.376C6.73684 17.52 6.64084 17.664 6.49684 17.808C6.36884 17.936 6.16884 18 5.89684 18H3.97684ZM21.0768 22.56C20.9008 22.56 20.7568 22.504 20.6448 22.392C20.5328 22.28 20.4768 22.136 20.4768 21.96V6.12C20.4768 5.944 20.5328 5.8 20.6448 5.688C20.7568 5.576 20.9008 5.52 21.0768 5.52H23.3568C23.5328 5.52 23.6768 5.576 23.7888 5.688C23.9008 5.8 23.9568 5.944 23.9568 6.12V7.032C24.3408 6.52 24.8368 6.104 25.4448 5.784C26.0528 5.448 26.8128 5.28 27.7248 5.28C28.5568 5.28 29.2768 5.416 29.8848 5.688C30.5088 5.944 31.0288 6.32 31.4448 6.816C31.8768 7.296 32.2048 7.88 32.4288 8.568C32.6688 9.256 32.8048 10.032 32.8368 10.896C32.8528 11.2 32.8608 11.488 32.8608 11.76C32.8608 12.032 32.8528 12.328 32.8368 12.648C32.8208 13.464 32.6928 14.216 32.4528 14.904C32.2288 15.592 31.9008 16.184 31.4688 16.68C31.0368 17.176 30.5088 17.56 29.8848 17.832C29.2768 18.104 28.5568 18.24 27.7248 18.24C26.9088 18.24 26.1968 18.096 25.5888 17.808C24.9968 17.504 24.5088 17.096 24.1248 16.584V21.96C24.1248 22.136 24.0688 22.28 23.9568 22.392C23.8448 22.504 23.7088 22.56 23.5488 22.56H21.0768ZM26.6448 15.36C27.2528 15.36 27.7328 15.232 28.0848 14.976C28.4368 14.704 28.6848 14.352 28.8288 13.92C28.9888 13.488 29.0848 13.016 29.1168 12.504C29.1488 12.008 29.1488 11.512 29.1168 11.016C29.0848 10.504 28.9888 10.032 28.8288 9.6C28.6848 9.168 28.4368 8.824 28.0848 8.568C27.7328 8.296 27.2528 8.16 26.6448 8.16C26.0528 8.16 25.5728 8.296 25.2048 8.568C24.8368 8.84 24.5728 9.184 24.4128 9.6C24.2528 10.016 24.1568 10.464 24.1248 10.944C24.1088 11.232 24.1008 11.528 24.1008 11.832C24.1008 12.136 24.1088 12.44 24.1248 12.744C24.1408 13.192 24.2368 13.616 24.4128 14.016C24.6048 14.4 24.8768 14.72 25.2288 14.976C25.5968 15.232 26.0688 15.36 26.6448 15.36Z" fill="#FA5A7D"/>
<path d="M36.0065 18C35.8305 18 35.6865 17.944 35.5745 17.832C35.4625 17.72 35.4065 17.576 35.4065 17.4V1.56C35.4065 1.384 35.4625 1.24 35.5745 1.128C35.6865 1.016 35.8305 0.959999 36.0065 0.959999H38.4065C38.5665 0.959999 38.7025 1.016 38.8145 1.128C38.9265 1.24 38.9825 1.384 38.9825 1.56V17.4C38.9825 17.576 38.9265 17.72 38.8145 17.832C38.7025 17.944 38.5665 18 38.4065 18H36.0065ZM43.2482 18C43.0882 18 42.9522 17.944 42.8402 17.832C42.7282 17.72 42.6722 17.576 42.6722 17.4V6.12C42.6722 5.944 42.7282 5.8 42.8402 5.688C42.9522 5.576 43.0882 5.52 43.2482 5.52H45.6482C45.8242 5.52 45.9682 5.576 46.0802 5.688C46.1922 5.8 46.2482 5.944 46.2482 6.12V17.4C46.2482 17.576 46.1922 17.72 46.0802 17.832C45.9682 17.944 45.8242 18 45.6482 18H43.2482ZM43.1762 3.6C43.0162 3.6 42.8802 3.544 42.7682 3.432C42.6562 3.32 42.6002 3.176 42.6002 3V1.08C42.6002 0.903999 42.6562 0.759999 42.7682 0.647999C42.8802 0.52 43.0162 0.456 43.1762 0.456H45.6962C45.8722 0.456 46.0162 0.52 46.1282 0.647999C46.2562 0.759999 46.3202 0.903999 46.3202 1.08V3C46.3202 3.176 46.2562 3.32 46.1282 3.432C46.0162 3.544 45.8722 3.6 45.6962 3.6H43.1762ZM54.5531 18.24C53.5611 18.24 52.7051 18.128 51.9851 17.904C51.2811 17.664 50.7051 17.376 50.2571 17.04C49.8251 16.704 49.4971 16.368 49.2731 16.032C49.0651 15.68 48.9531 15.384 48.9371 15.144C48.9211 14.968 48.9771 14.824 49.1051 14.712C49.2331 14.6 49.3611 14.544 49.4891 14.544H51.8171C51.8651 14.544 51.9131 14.552 51.9611 14.568C52.0091 14.584 52.0571 14.624 52.1051 14.688C52.3131 14.832 52.5291 15 52.7531 15.192C52.9771 15.368 53.2331 15.52 53.5211 15.648C53.8251 15.776 54.2011 15.84 54.6491 15.84C55.1771 15.84 55.6251 15.736 55.9931 15.528C56.3611 15.304 56.5451 14.992 56.5451 14.592C56.5451 14.304 56.4571 14.064 56.2811 13.872C56.1211 13.68 55.8091 13.504 55.3451 13.344C54.8811 13.184 54.1931 13.008 53.2811 12.816C52.4171 12.624 51.6811 12.368 51.0731 12.048C50.4651 11.728 50.0091 11.328 49.7051 10.848C49.4011 10.352 49.2491 9.76 49.2491 9.072C49.2491 8.448 49.4411 7.848 49.8251 7.272C50.2251 6.696 50.8091 6.224 51.5771 5.856C52.3451 5.472 53.3051 5.28 54.4571 5.28C55.3371 5.28 56.1051 5.392 56.7611 5.616C57.4331 5.824 57.9931 6.096 58.4411 6.432C58.8891 6.752 59.2251 7.088 59.4491 7.44C59.6891 7.776 59.8171 8.072 59.8331 8.328C59.8491 8.488 59.8011 8.624 59.6891 8.736C59.5771 8.848 59.4491 8.904 59.3051 8.904H57.1691C57.0891 8.904 57.0171 8.896 56.9531 8.88C56.8891 8.848 56.8331 8.808 56.7851 8.76C56.5931 8.632 56.3931 8.488 56.1851 8.328C55.9931 8.152 55.7611 8 55.4891 7.872C55.2171 7.744 54.8651 7.68 54.4331 7.68C53.9051 7.68 53.4971 7.8 53.2091 8.04C52.9371 8.264 52.8011 8.552 52.8011 8.904C52.8011 9.128 52.8731 9.336 53.0171 9.528C53.1611 9.72 53.4571 9.896 53.9051 10.056C54.3531 10.216 55.0331 10.384 55.9451 10.56C57.0331 10.752 57.8971 11.04 58.5371 11.424C59.1771 11.808 59.6331 12.256 59.9051 12.768C60.1931 13.264 60.3371 13.8 60.3371 14.376C60.3371 15.128 60.1131 15.8 59.6651 16.392C59.2171 16.968 58.5611 17.424 57.6971 17.76C56.8491 18.08 55.8011 18.24 54.5531 18.24ZM68.594 18C67.602 18 66.754 17.84 66.05 17.52C65.346 17.184 64.81 16.672 64.442 15.984C64.09 15.296 63.914 14.432 63.914 13.392V8.352H62.042C61.866 8.352 61.722 8.296 61.61 8.184C61.498 8.072 61.442 7.928 61.442 7.752V6.12C61.442 5.944 61.498 5.8 61.61 5.688C61.722 5.576 61.866 5.52 62.042 5.52H63.914V1.56C63.914 1.384 63.97 1.24 64.082 1.128C64.21 1.016 64.354 0.959999 64.514 0.959999H66.866C67.042 0.959999 67.186 1.016 67.298 1.128C67.41 1.24 67.466 1.384 67.466 1.56V5.52H70.466C70.626 5.52 70.762 5.576 70.874 5.688C70.986 5.8 71.042 5.944 71.042 6.12V7.752C71.042 7.928 70.986 8.072 70.874 8.184C70.762 8.296 70.626 8.352 70.466 8.352H67.466V13.104C67.466 13.712 67.57 14.192 67.778 14.544C68.002 14.88 68.386 15.048 68.93 15.048H70.682C70.842 15.048 70.978 15.104 71.09 15.216C71.202 15.328 71.258 15.464 71.258 15.624V17.4C71.258 17.576 71.202 17.72 71.09 17.832C70.978 17.944 70.842 18 70.682 18H68.594ZM78.9198 18.24C77.0798 18.24 75.6158 17.728 74.5278 16.704C73.4558 15.68 72.8878 14.192 72.8238 12.24C72.8238 12.112 72.8238 11.944 72.8238 11.736C72.8238 11.512 72.8238 11.336 72.8238 11.208C72.8878 9.976 73.1678 8.92 73.6638 8.04C74.1598 7.144 74.8558 6.464 75.7518 6C76.6478 5.52 77.6958 5.28 78.8958 5.28C80.2398 5.28 81.3598 5.56 82.2558 6.12C83.1678 6.664 83.8478 7.416 84.2958 8.376C84.7598 9.32 84.9918 10.408 84.9918 11.64V12.192C84.9918 12.352 84.9278 12.488 84.7998 12.6C84.6878 12.712 84.5518 12.768 84.3918 12.768H76.5438C76.5438 12.784 76.5438 12.816 76.5438 12.864C76.5438 12.896 76.5438 12.928 76.5438 12.96C76.5598 13.472 76.6558 13.944 76.8318 14.376C77.0238 14.792 77.2878 15.128 77.6238 15.384C77.9758 15.64 78.3918 15.768 78.8718 15.768C79.2718 15.768 79.5998 15.712 79.8558 15.6C80.1118 15.488 80.3198 15.352 80.4798 15.192C80.6558 15.032 80.7838 14.896 80.8638 14.784C81.0078 14.624 81.1198 14.528 81.1998 14.496C81.2958 14.448 81.4398 14.424 81.6318 14.424H84.1278C84.2878 14.424 84.4158 14.472 84.5118 14.568C84.6238 14.648 84.6718 14.768 84.6558 14.928C84.6398 15.184 84.5038 15.504 84.2478 15.888C84.0078 16.256 83.6478 16.624 83.1678 16.992C82.6878 17.344 82.0878 17.64 81.3678 17.88C80.6638 18.12 79.8478 18.24 78.9198 18.24ZM76.5438 10.584H81.2478V10.536C81.2478 9.96 81.1518 9.464 80.9598 9.048C80.7838 8.616 80.5198 8.28 80.1678 8.04C79.8158 7.8 79.3918 7.68 78.8958 7.68C78.3998 7.68 77.9758 7.8 77.6238 8.04C77.2718 8.28 76.9998 8.616 76.8078 9.048C76.6318 9.464 76.5438 9.96 76.5438 10.536V10.584ZM87.9669 18C87.8069 18 87.6709 17.944 87.5589 17.832C87.4469 17.72 87.3909 17.576 87.3909 17.4V6.12C87.3909 5.944 87.4469 5.8 87.5589 5.688C87.6709 5.576 87.8069 5.52 87.9669 5.52H90.3189C90.4949 5.52 90.6389 5.576 90.7509 5.688C90.8629 5.8 90.9189 5.944 90.9189 6.12V7.056C91.3349 6.544 91.8709 6.12 92.5269 5.784C93.1829 5.448 93.9829 5.28 94.9269 5.28C95.8709 5.28 96.6949 5.496 97.3989 5.928C98.1189 6.344 98.6789 6.96 99.0789 7.776C99.4949 8.576 99.7029 9.552 99.7029 10.704V17.4C99.7029 17.576 99.6389 17.72 99.5109 17.832C99.3989 17.944 99.2629 18 99.1029 18H96.5589C96.3829 18 96.2389 17.944 96.1269 17.832C96.0149 17.72 95.9589 17.576 95.9589 17.4V10.848C95.9589 10 95.7509 9.344 95.3349 8.88C94.9349 8.4 94.3429 8.16 93.5589 8.16C92.8069 8.16 92.2069 8.4 91.7589 8.88C91.3109 9.344 91.0869 10 91.0869 10.848V17.4C91.0869 17.576 91.0309 17.72 90.9189 17.832C90.8069 17.944 90.6709 18 90.5109 18H87.9669ZM108.146 18.24C106.306 18.24 104.842 17.728 103.754 16.704C102.682 15.68 102.114 14.192 102.05 12.24C102.05 12.112 102.05 11.944 102.05 11.736C102.05 11.512 102.05 11.336 102.05 11.208C102.114 9.976 102.394 8.92 102.89 8.04C103.386 7.144 104.082 6.464 104.978 6C105.874 5.52 106.922 5.28 108.122 5.28C109.466 5.28 110.586 5.56 111.482 6.12C112.394 6.664 113.074 7.416 113.522 8.376C113.986 9.32 114.218 10.408 114.218 11.64V12.192C114.218 12.352 114.154 12.488 114.026 12.6C113.914 12.712 113.778 12.768 113.618 12.768H105.77C105.77 12.784 105.77 12.816 105.77 12.864C105.77 12.896 105.77 12.928 105.77 12.96C105.786 13.472 105.882 13.944 106.058 14.376C106.25 14.792 106.514 15.128 106.85 15.384C107.202 15.64 107.618 15.768 108.098 15.768C108.498 15.768 108.826 15.712 109.082 15.6C109.338 15.488 109.546 15.352 109.706 15.192C109.882 15.032 110.01 14.896 110.09 14.784C110.234 14.624 110.346 14.528 110.426 14.496C110.522 14.448 110.666 14.424 110.858 14.424H113.354C113.514 14.424 113.642 14.472 113.738 14.568C113.85 14.648 113.898 14.768 113.882 14.928C113.866 15.184 113.73 15.504 113.474 15.888C113.234 16.256 112.874 16.624 112.394 16.992C111.914 17.344 111.314 17.64 110.594 17.88C109.89 18.12 109.074 18.24 108.146 18.24ZM105.77 10.584H110.474V10.536C110.474 9.96 110.378 9.464 110.186 9.048C110.01 8.616 109.746 8.28 109.394 8.04C109.042 7.8 108.618 7.68 108.122 7.68C107.626 7.68 107.202 7.8 106.85 8.04C106.498 8.28 106.226 8.616 106.034 9.048C105.858 9.464 105.77 9.96 105.77 10.536V10.584ZM117.193 18C117.033 18 116.897 17.944 116.785 17.832C116.673 17.72 116.617 17.576 116.617 17.4V6.12C116.617 5.96 116.673 5.824 116.785 5.712C116.897 5.584 117.033 5.52 117.193 5.52H119.545C119.705 5.52 119.841 5.584 119.953 5.712C120.081 5.824 120.145 5.96 120.145 6.12V7.08C120.545 6.584 121.033 6.2 121.609 5.928C122.201 5.656 122.881 5.52 123.649 5.52H124.681C124.841 5.52 124.977 5.576 125.089 5.688C125.201 5.8 125.257 5.944 125.257 6.12V8.184C125.257 8.36 125.201 8.504 125.089 8.616C124.977 8.728 124.841 8.784 124.681 8.784H122.569C121.865 8.784 121.313 8.984 120.913 9.384C120.513 9.768 120.313 10.32 120.313 11.04V17.4C120.313 17.576 120.257 17.72 120.145 17.832C120.033 17.944 119.889 18 119.713 18H117.193Z" fill="white"/>
</svg>
