<?xml version="1.0" encoding="UTF-8"?>
<!DOCTYPE svg PUBLIC "-//W3C//DTD SVG 1.1//EN" "http://www.w3.org/Graphics/SVG/1.1/DTD/svg11.dtd">
<!-- Creator: CorelDRAW 2021.5 -->
<svg xmlns="http://www.w3.org/2000/svg" xml:space="preserve" width="140.454mm" height="25.3488mm" version="1.1" style="shape-rendering:geometricPrecision; text-rendering:geometricPrecision; image-rendering:optimizeQuality; fill-rule:evenodd; clip-rule:evenodd"
viewBox="0 0 14045.42 2534.88"
 xmlns:xlink="http://www.w3.org/1999/xlink"
 xmlns:xodm="http://www.corel.com/coreldraw/odm/2003">
 <defs>
  <style type="text/css">
   <![CDATA[
    .fil0 {fill:#FEFEFE;fill-rule:nonzero}
    .fil2 {fill:#FEFEFE;fill-rule:nonzero}
    .fil1 {fill:#FAC800;fill-rule:nonzero}
   ]]>
  </style>
 </defs>
 <g id="Layer_x0020_1">
  <metadata id="CorelCorpID_0Corel-Layer"/>
  <g id="_2221010779152">
   <path class="fil0" d="M4123.23 1268.9l-286.27 0 -257.83 842.81 -279.16 -846.37 -234.7 0 -279.16 846.37 -257.82 -842.81 -293.38 0 424.97 1253.55 238.25 0 280.93 -814.36 280.94 814.36 238.26 0 424.97 -1253.55zm1187.74 433.85l0 -3.56c0,-254.26 -179.57,-430.29 -476.52,-430.29l-508.53 0 0 1244.65 273.83 0 0 -373.4 208.03 0c279.16,0 503.19,-149.35 503.19,-437.4zm-277.37 5.34c0,106.68 -80.02,188.47 -216.93,188.47l-216.92 0 0 -380.5 211.59 0c136.91,0 222.26,65.79 222.26,188.47l0 3.56z"/>
   <path class="fil1" d="M5767.94 2513.55l0 -1297.99 -270.27 0 0 1297.99 270.27 0zm544.08 -1057.95l0 -240.04 -284.5 0 0 240.04 284.5 0zm-7.11 1057.95l0 -953.04 -270.26 0 0 953.04 270.26 0zm953.04 -289.82l0 -3.56c0,-174.25 -154.7,-238.26 -288.04,-282.71 -103.14,-35.56 -193.81,-60.46 -193.81,-113.8l0 -3.56c0,-37.33 33.78,-65.78 99.56,-65.78 69.35,0 163.59,33.78 257.83,88.9l103.12 -186.7c-103.12,-69.35 -234.71,-110.24 -355.61,-110.24 -192.04,0 -348.5,108.47 -348.5,302.28l0 3.55c0,184.92 151.14,247.15 284.49,286.27 104.9,32.01 197.36,51.57 197.36,110.23l0 3.56c0,42.67 -35.56,71.13 -113.79,71.13 -88.9,0 -197.36,-39.12 -300.5,-113.8l-115.57 177.81c126.24,99.57 275.6,144.02 408.95,144.02 206.26,0 364.51,-96.02 364.51,-307.6zm711.24 250.7l0 -216.92c-39.12,21.34 -83.57,33.78 -133.36,33.78 -60.45,0 -87.12,-30.23 -87.12,-92.46l0 -407.18 224.04 0 0 -231.14 -224.04 0 0 -243.6 -270.27 0 0 243.6 -113.79 0 0 231.14 113.79 0 0 451.64c0,220.48 112.02,286.27 277.38,286.27 90.68,0 156.47,-21.35 213.37,-55.13zm1065.07 -410.73l0 -3.56c0,-270.26 -145.8,-517.41 -464.08,-517.41 -277.37,0 -471.18,224.03 -471.18,496.08l0 3.56c0,291.59 211.58,492.51 497.85,492.51 172.48,0 300.5,-67.56 389.41,-177.8l-154.69 -136.91c-74.69,69.35 -140.48,97.79 -231.16,97.79 -120.91,0 -206.25,-64.01 -232.93,-186.69l663.22 0c1.79,-24.9 3.56,-40.9 3.56,-67.57zm-263.16 -101.35l-407.18 0c21.35,-122.69 94.25,-202.7 206.26,-202.7 113.8,0 184.92,81.8 200.92,202.7zm1337.12 551.2l0 -616.99c0,-218.7 -119.13,-353.83 -323.61,-353.83 -136.91,0 -216.92,72.9 -279.16,152.91l0 -135.13 -270.26 0 0 953.04 270.26 0 0 -531.64c0,-128.03 65.79,-193.81 168.92,-193.81 103.13,0 163.58,65.78 163.58,193.81l0 531.64 270.27 0zm1123.74 -449.85l0 -3.56c0,-270.26 -145.8,-517.41 -464.08,-517.41 -277.37,0 -471.18,224.03 -471.18,496.08l0 3.56c0,291.59 211.59,492.51 497.85,492.51 172.48,0 300.5,-67.56 389.41,-177.8l-154.69 -136.91c-74.69,69.35 -140.47,97.79 -231.16,97.79 -120.91,0 -206.25,-64.01 -232.93,-186.69l663.22 0c1.79,-24.9 3.56,-40.9 3.56,-67.57zm-263.16 -101.35l-407.17 0c21.34,-122.69 94.24,-202.7 206.25,-202.7 113.81,0 184.92,81.8 200.92,202.7zm1038.41 -136.91l0 -282.71c-160.03,-7.12 -248.93,78.22 -304.05,209.8l0 -192.02 -270.27 0 0 953.04 270.27 0 0 -352.05c0,-227.6 110.24,-336.06 289.82,-336.06l14.23 0z"/>
  </g>
  <path class="fil2" d="M12200.33 2513.54l0 -137.44 -139.15 0 0 137.44 139.15 0zm499.93 -73.87l-76.45 -77.31c-31.78,30.07 -61.85,48.96 -105.65,48.96 -71.3,0 -116.82,-56.69 -116.82,-127.13l0 -1.71c0,-67.87 46.38,-125.42 111.66,-125.42 46.38,0 75.59,19.76 104.8,50.68l79.88 -85.9c-42.95,-48.09 -97.06,-77.31 -183.83,-77.31 -140.86,0 -241.37,108.24 -241.37,239.66l0 1.72c0,131.43 101.37,237.94 239.66,237.94 91.91,0 143.46,-35.22 188.12,-84.18zm548.03 -155.48l0 -1.71c0,-132.29 -105.66,-237.95 -248.25,-237.95 -143.45,0 -249.96,107.38 -249.96,239.66l0 1.72c0,132.28 105.65,237.94 248.24,237.94 143.45,0 249.97,-107.37 249.97,-239.66zm-128.85 1.72c0,67.86 -44.67,125.41 -119.4,125.41 -72.15,0 -121.11,-59.27 -121.11,-127.13l0 -1.71c0,-67.87 44.66,-125.42 119.39,-125.42 72.16,0 121.12,59.27 121.12,127.13l0 1.72zm925.98 227.63l0 -299.79c0,-110.8 -58.41,-169.22 -155.48,-169.22 -62.7,0 -110.8,25.78 -151.17,73.02 -24.05,-46.38 -69.58,-73.02 -129.71,-73.02 -66.15,0 -105.66,35.22 -135.73,73.88l0 -65.28 -130.55 0 0 460.41 130.55 0 0 -256.84c0,-61.84 30.07,-93.62 79.04,-93.62 48.96,0 76.44,31.78 76.44,93.62l0 256.84 130.56 0 0 -256.84c0,-61.84 30.07,-93.62 79.04,-93.62 48.96,0 76.44,31.78 76.44,93.62l0 256.84 130.57 0z"/>
  <g id="_2221010780256">
   <path class="fil2" d="M825.01 2513.55c-5.8,-42.44 -10.44,-84.57 -13.82,-126.32 -5.14,-63.29 -7.77,-126.45 -7.77,-189.24 0,-316.45 63.13,-618.75 177.48,-894.8 112.71,-272.16 274.9,-518.19 475.16,-726.62l123.93 123.93c-184.78,192.83 -334.08,419.39 -437.52,669.11 -105.52,254.73 -163.77,534.55 -163.77,828.38 0,59.41 2.38,118 7.04,175.55 3.86,47.69 9.16,94.42 15.86,140.01l-176.59 0z"/>
   <path class="fil1" d="M21.84 2513.55c-5.92,-49.36 -10.62,-98.44 -14.05,-147.16l0 -0.55c-5.16,-73.39 -7.79,-145.16 -7.79,-215.24 0,-410.52 81.14,-803.15 228.31,-1162.6 152.46,-371.7 375.06,-706.63 651.18,-988l197.72 197.72c-250.94,256.17 -452.82,559.93 -590.4,895.98l0 0.53c-133.03,324.95 -206.4,681.59 -206.4,1056.37 0,67.61 2.26,133.01 6.67,196.07 4.02,56.63 9.62,112.31 16.75,166.88l-281.99 0z"/>
   <path class="fil1" d="M1532.42 2513.55c-10.9,-47.28 -19.7,-95.29 -26.18,-143.89 -9.44,-70.17 -14.31,-141.05 -14.31,-212.16 0,-210.17 41.09,-410.95 115.62,-594.62 76.85,-189.38 189.47,-360.69 329.38,-505.44l82.42 82.42c-128.83,133.6 -232.63,291.79 -303.65,466.84 -68.94,169.89 -106.91,355.84 -106.91,550.8 0,67.5 4.41,133.15 12.91,196.65 7.22,54.33 17.43,107.5 30.39,159.4l-119.67 0z"/>
  </g>
 </g>
</svg>
