<svg width="23" height="23" viewBox="0 0 23 23" fill="none" xmlns="http://www.w3.org/2000/svg">
<g clip-path="url(#clip0_418_458)">
<path d="M19.9336 11.3906V15.6621H2.84766V4.27148H7.83105V2.84766H2.84766C2.47003 2.84766 2.10788 2.99767 1.84086 3.26469C1.57384 3.53171 1.42383 3.89386 1.42383 4.27148V15.6621C1.42383 16.0397 1.57384 16.4019 1.84086 16.6689C2.10788 16.9359 2.47003 17.0859 2.84766 17.0859H8.54297V19.9336H5.69531V21.3574H17.0859V19.9336H14.2383V17.0859H19.9336C20.3112 17.0859 20.6734 16.9359 20.9404 16.6689C21.2074 16.4019 21.3574 16.0397 21.3574 15.6621V11.3906H19.9336ZM12.8145 19.9336H9.9668V17.0859H12.8145V19.9336Z" fill="#2C2C2C"/>
<path d="M12.8145 12.8144H12.8073C12.6539 12.8128 12.5051 12.7617 12.3831 12.6687C12.2611 12.5756 12.1724 12.4456 12.1302 12.2981L10.8536 7.83104H7.83105V6.40721H11.3906C11.5453 6.40721 11.6958 6.4576 11.8193 6.55075C11.9428 6.64391 12.0326 6.77475 12.0751 6.92349L12.8399 9.59951L14.9819 2.6382C15.028 2.49356 15.1186 2.36715 15.2407 2.27695C15.3628 2.18674 15.5103 2.13733 15.6621 2.13573C15.8121 2.13351 15.9587 2.17966 16.0804 2.26735C16.202 2.35503 16.2922 2.47958 16.3375 2.62253L17.599 6.40721H21.3574V7.83104H17.0859C16.9365 7.83104 16.7909 7.78403 16.6697 7.69666C16.5484 7.60929 16.4578 7.48599 16.4105 7.34423L15.6892 5.18001L13.4948 12.312C13.45 12.4574 13.3597 12.5847 13.2373 12.6752C13.1149 12.7656 12.9667 12.8144 12.8145 12.8144Z" fill="#2C2C2C"/>
</g>
<defs>
<clipPath id="clip0_418_458">
<rect width="22.7812" height="22.7812" fill="white"/>
</clipPath>
</defs>
</svg>
